{
    "notifications": [
        {
            "title": "गुरु पौर्णिमा विशेष",
            "subtitle": "Youtube: इस खास दिन पर सुनिए श्री साईं बाबा के मधुर गीत",
            "type": "youtube",
            "subtype": "",
            "path": "B7fVPFk3sEM",
            "image": "https://bitbucket.org/AndroidVipra/sarvamsairesources/raw/master/resources/notifications/saibaba.jpg",
            "isShareBtnVisible": true
        }
    ]
}