{
    "notifications": [
        {
            "title": "ಗುರು ಪೌರ್ಣಮಿ ವಿಶೇಷ",
            "subtitle": "Youtube: ಭಗವಾನ್ ಸಾಯಿಬಾಬಾ ಚಿತ್ರ ನೋಡಿ ಆನಂದಿಸಿ, ಬಾಬಾರ ಕೃಪೆಗೆ ಪಾತ್ರರಾಗಿ.",
            "type": "youtube",
            "subtype": "",
            "path": "9AQ1RTtQcGU",
            "image": "https://bitbucket.org/AndroidVipra/sarvamsairesources/raw/master/resources/notifications/bhagawan_sai_kannada_movie.jpg",
            "isShareBtnVisible": true
        }
    ]
}