{
    "wallpapers" : [
        "https://bitbucket.org/AndroidVipra/sarvamsairesources/raw/master/resources/wallpapers/1.jpg",
        "https://bitbucket.org/AndroidVipra/sarvamsairesources/raw/master/resources/wallpapers/2.jpg",
        "https://bitbucket.org/AndroidVipra/sarvamsairesources/raw/master/resources/wallpapers/3.jpg",
        "https://bitbucket.org/AndroidVipra/sarvamsairesources/raw/master/resources/wallpapers/4.jpg",
        "https://bitbucket.org/AndroidVipra/sarvamsairesources/raw/master/resources/wallpapers/5.jpg",
        "https://bitbucket.org/AndroidVipra/sarvamsairesources/raw/master/resources/wallpapers/6.jpg",
        "https://bitbucket.org/AndroidVipra/sarvamsairesources/raw/master/resources/wallpapers/7.jpg",
        "https://bitbucket.org/AndroidVipra/sarvamsairesources/raw/master/resources/wallpapers/8.jpg",
        "https://bitbucket.org/AndroidVipra/sarvamsairesources/raw/master/resources/wallpapers/9.jpg",
        "https://bitbucket.org/AndroidVipra/sarvamsairesources/raw/master/resources/wallpapers/10.jpg",
        "https://bitbucket.org/AndroidVipra/sarvamsairesources/raw/master/resources/wallpapers/11.jpg",
        "https://bitbucket.org/AndroidVipra/sarvamsairesources/raw/master/resources/wallpapers/12.jpg",
        "https://bitbucket.org/AndroidVipra/sarvamsairesources/raw/master/resources/wallpapers/13.jpg",
        "https://bitbucket.org/AndroidVipra/sarvamsairesources/raw/master/resources/wallpapers/14.jpg",
        "https://bitbucket.org/AndroidVipra/sarvamsairesources/raw/master/resources/wallpapers/15.jpg",
        "https://bitbucket.org/AndroidVipra/sarvamsairesources/raw/master/resources/wallpapers/16.jpg",
        "https://bitbucket.org/AndroidVipra/sarvamsairesources/raw/master/resources/wallpapers/17.jpg",
        "https://bitbucket.org/AndroidVipra/sarvamsairesources/raw/master/resources/wallpapers/18.jpg",
        "https://bitbucket.org/AndroidVipra/sarvamsairesources/raw/master/resources/wallpapers/19.jpg",
        "https://bitbucket.org/AndroidVipra/sarvamsairesources/raw/master/resources/wallpapers/20.jpg",
        "https://bitbucket.org/AndroidVipra/sarvamsairesources/raw/master/resources/wallpapers/21.jpg",
        "https://bitbucket.org/AndroidVipra/sarvamsairesources/raw/master/resources/wallpapers/22.jpg",
        "https://bitbucket.org/AndroidVipra/sarvamsairesources/raw/master/resources/wallpapers/23.jpg",
        "https://bitbucket.org/AndroidVipra/sarvamsairesources/raw/master/resources/wallpapers/26.jpg",
        "https://bitbucket.org/AndroidVipra/sarvamsairesources/raw/master/resources/wallpapers/27.jpg",
        "https://bitbucket.org/AndroidVipra/sarvamsairesources/raw/master/resources/wallpapers/28.jpg",
        "https://bitbucket.org/AndroidVipra/sarvamsairesources/raw/master/resources/wallpapers/29.jpg",
        "https://bitbucket.org/AndroidVipra/sarvamsairesources/raw/master/resources/wallpapers/30.jpg",
        "https://bitbucket.org/AndroidVipra/sarvamsairesources/raw/master/resources/wallpapers/31.jpg",
        "https://bitbucket.org/AndroidVipra/sarvamsairesources/raw/master/resources/wallpapers/32.jpg",
        "https://bitbucket.org/AndroidVipra/sarvamsairesources/raw/master/resources/wallpapers/33.jpg",
        "https://bitbucket.org/AndroidVipra/sarvamsairesources/raw/master/resources/wallpapers/34.jpg",
        "https://bitbucket.org/AndroidVipra/sarvamsairesources/raw/master/resources/wallpapers/35.jpg",
        "https://bitbucket.org/AndroidVipra/sarvamsairesources/raw/master/resources/wallpapers/36.jpg",
        "https://bitbucket.org/AndroidVipra/sarvamsairesources/raw/master/resources/wallpapers/37.jpg",
        "https://bitbucket.org/AndroidVipra/sarvamsairesources/raw/master/resources/wallpapers/38.jpg",
        "https://bitbucket.org/AndroidVipra/sarvamsairesources/raw/master/resources/wallpapers/39.jpg",
        "https://bitbucket.org/AndroidVipra/sarvamsairesources/raw/master/resources/wallpapers/40.jpg",
        "https://bitbucket.org/AndroidVipra/sarvamsairesources/raw/master/resources/wallpapers/0.jpg",
        "https://bitbucket.org/AndroidVipra/sarvamsairesources/raw/master/resources/wallpapers/41.jpg"
    ]
}